<svg xmlns="http://www.w3.org/2000/svg" xmlns:xlink="http://www.w3.org/1999/xlink" preserveAspectRatio="xMidYMid" width="10" height="6" viewBox="0 0 10 6">
  <defs>
    <style>

      .cls-2 {
        fill: #cac9c4;
      }
    </style>
  </defs>
  <path d="M10.000,4.883 C10.000,4.883 5.000,-0.000 5.000,-0.000 C5.000,-0.000 0.000,4.883 0.000,4.883 C0.000,4.883 1.128,6.000 1.128,6.000 C1.128,6.000 5.000,2.219 5.000,2.219 C5.000,2.219 8.872,6.000 8.872,6.000 C8.872,6.000 10.000,4.883 10.000,4.883 Z" id="path-1" class="cls-2" fill-rule="evenodd"/>
</svg>
