<?xml version="1.0" encoding="utf-8"?>
<!-- Generator: Adobe Illustrator 18.1.1, SVG Export Plug-In . SVG Version: 6.00 Build 0)  -->
<!DOCTYPE svg PUBLIC "-//W3C//DTD SVG 1.1//EN" "http://www.w3.org/Graphics/SVG/1.1/DTD/svg11.dtd">
<svg version="1.1" id="layers" xmlns="http://www.w3.org/2000/svg" xmlns:xlink="http://www.w3.org/1999/xlink" x="0px" y="0px"
	 width="20.1px" height="18.7px" viewBox="0 0 20.1 18.7" enable-background="new 0 0 20.1 18.7" xml:space="preserve">
<path fill="#60b0b9" d="M20.1,4.1h-2.7v2.5h-1.3V4.1h-2.7V2.8h2.7V0.3h1.3v2.5h2.7V4.1z M12.6,14.5c0,1.9-1.8,4.2-6.4,4.2c-3.4,0-6.1-1.4-6.1-3.7
	C0,13.3,1.2,11,6.7,11c-0.8-0.6-1-1.5-0.5-2.5C3,8.4,1.3,6.6,1.3,4.3C1.3,2.1,3.1,0,6.7,0c0.9,0,5.8,0,5.8,0l-1.3,1.3H9.6
	c1.1,0.6,1.6,1.8,1.6,3.1c0,1.2-0.7,2.2-1.7,2.9c-1.8,1.3-1.3,2,0.5,3.3C11.9,12,12.6,13,12.6,14.5z M9,4.5C8.7,2.5,7.4,0.9,5.8,0.9
	c-1.6,0-2.6,1.4-2.3,3.4c0.3,1.9,1.7,3.3,3.3,3.3C8.3,7.7,9.2,6.4,9,4.5z M10.6,14.7c0-1.6-1.5-3.1-4.1-3.1c-2.3,0-4.3,1.4-4.3,3
	c0,1.7,1.7,3.1,4,3.1C9.1,17.7,10.6,16.4,10.6,14.7z"/>
</svg>
