<?xml version="1.0" encoding="utf-8"?>

<!-- License Agreement at http://iconmonstr.com/license/ -->

<!DOCTYPE svg PUBLIC "-//W3C//DTD SVG 1.1//EN" "http://www.w3.org/Graphics/SVG/1.1/DTD/svg11.dtd">
<svg version="1.1" xmlns="http://www.w3.org/2000/svg" xmlns:xlink="http://www.w3.org/1999/xlink" x="0px" y="0px"
	 width="90px" height="65px" viewBox="0 0 512 512" enable-background="new 0 0 512 512" xml:space="preserve">
<path fill="#d1d0cc" id="quote-icon" d="M290.619,401.835c0,0,0-52.152,0-109.538c0-97.926,61.881-164.297,152.049-182.132l17.087,36.931
	C418,162.833,391.512,200.5,391.512,238.455H462v163.38H290.619z M50,401.835c0,0,0-52.152,0-109.538
	C50,194.371,111.881,128,202.048,110.165l17.087,36.931c-41.754,15.737-68.242,53.404-68.242,91.359h70.487v163.38H50z"/>
</svg>
