<svg version="1.1" xmlns="http://www.w3.org/2000/svg" xmlns:xlink="http://www.w3.org/1999/xlink" x="0px" y="0px"
	 viewBox="0 0 49.8 50.2" style="enable-background:new 0 0 49.8 50.2;" xml:space="preserve">
<g>
	<path fill="#231F20" d="M47.9,6h-46c-0.6,0-1,0.4-1,1v32c0,0.6,0.4,1,1,1h13v7c0,0.4,0.2,0.8,0.6,0.9c0.1,0.1,0.3,0.1,0.4,0.1
		c0.3,0,0.5-0.1,0.7-0.3l7.7-7.7h23.6c0.6,0,1-0.4,1-1V7C48.9,6.4,48.5,6,47.9,6z M11.9,16h18c0.6,0,1,0.4,1,1s-0.4,1-1,1h-18
		c-0.6,0-1-0.4-1-1S11.4,16,11.9,16z M37.9,30h-26c-0.6,0-1-0.4-1-1s0.4-1,1-1h26c0.6,0,1,0.4,1,1S38.5,30,37.9,30z M37.9,24h-26
		c-0.6,0-1-0.4-1-1s0.4-1,1-1h26c0.6,0,1,0.4,1,1S38.5,24,37.9,24z"/>
</g>
</svg>
