<?xml version="1.0" encoding="utf-8"?>
<!-- Generator: Adobe Illustrator 18.1.1, SVG Export Plug-In . SVG Version: 6.00 Build 0)  -->
<!DOCTYPE svg PUBLIC "-//W3C//DTD SVG 1.1//EN" "http://www.w3.org/Graphics/SVG/1.1/DTD/svg11.dtd">
<svg version="1.1" id="layers" xmlns="http://www.w3.org/2000/svg" xmlns:xlink="http://www.w3.org/1999/xlink" x="0px" y="0px"
	 width="15.8px" height="13px" viewBox="0 0 15.8 13" enable-background="new 0 0 15.8 13" xml:space="preserve">
<path fill-rule="evenodd" clip-rule="evenodd" fill="#60B0B9" d="M12.4,6C11,6,9.9,4.8,9.9,3.5C9.9,2.1,11,1,12.4,1s2.5,1.1,2.5,2.5
	C14.9,4.8,13.8,6,12.4,6z M15.8,9.5c0,1.9-1.6,3.5-3.5,3.5s-3.5-1.6-3.5-3.5S10.3,6,12.3,6S15.8,7.6,15.8,9.5z M5,10
	c-2.8,0-5-2.2-5-5c0-2.8,2.2-5,5-5c2.8,0,5,2.2,5,5C10,7.8,7.8,10,5,10z"/>
</svg>
