{
  "indicators": [
    {
      "hasDataForThisLocation": true,
      "locationsWithData": 135,
      "featuredDataPoint": "<span class=\"tooltip-hover data_value--text\">20.6<span class=suffix>M</span></span>",
      "featuredDataPointRaw": 20639000,
      "featuredDataPointYear": "2014",
      "rangeLeftLabel": "Lowest",
      "rangeRightLabel": "Highest",
      "rangeMedianLabel": "Median",
      "leftStat": "9,894",
      "medianStat": "9.47M",
      "rightStat": "1.36B",
      "medianValuePositionPct": 0.6934239268886163,
      "indicatorValuePositionPct": 1.5121094510697362,
      "valueComparedToMedian": "neutral",
      "id": 1,
      "name": "Population",
      "displayOrder": 1
    },
    {
      "hasDataForThisLocation": true,
      "locationsWithData": 130,
      "featuredDataPoint": "<span class=\"data_symbol--align_top\">$</span><span class=\"tooltip-hover data_value--text\">10.5<span class=suffix>K</span></span>",
      "featuredDataPointRaw": 10527.53049,
      "featuredDataPointYear": "2014",
      "rangeLeftLabel": "Worst",
      "rangeRightLabel": "Best",
      "rangeMedianLabel": "Median",
      "leftStat": "$606",
      "medianStat": "$6,270",
      "rightStat": "$24.7K",
      "medianValuePositionPct": 23.490920927159724,
      "indicatorValuePositionPct": 41.152673041347555,
      "valueComparedToMedian": "better",
      "id": 2,
      "name": "GDP per capita",
      "displayOrder": 2
    },
    {
      "hasDataForThisLocation": true,
      "locationsWithData": 134,
      "featuredDataPoint": "<span class=\"tooltip-hover data_value--text\">82</span><span class=\"data_symbol--align_bottom\">%</span>",
      "featuredDataPointRaw": 0.8168,
      "featuredDataPointYear": "2014",
      "rangeLeftLabel": "Lowest",
      "rangeRightLabel": "Highest",
      "rangeMedianLabel": "Median",
      "leftStat": "12%",
      "medianStat": "51%",
      "rightStat": "88%",
      "medianValuePositionPct": 51.12437260403904,
      "indicatorValuePositionPct": 91.35939084956988,
      "valueComparedToMedian": "neutral",
      "id": 6,
      "name": "Percent of population living in rural areas",
      "displayOrder": 6
    },
    {
      "hasDataForThisLocation": true,
      "locationsWithData": 132,
      "featuredDataPoint": "<span class=\"tooltip-hover data_value--text\">74</span>",
      "featuredDataPointRaw": 74.24029,
      "featuredDataPointYear": "2013",
      "rangeLeftLabel": "Worst",
      "rangeRightLabel": "Best",
      "rangeMedianLabel": "Median",
      "leftStat": "46",
      "medianStat": "69",
      "rightStat": "80",
      "medianValuePositionPct": 67.32427302617593,
      "indicatorValuePositionPct": 82.97009103783832,
      "valueComparedToMedian": "better",
      "id": 3,
      "name": "Life expectancy",
      "displayOrder": 3
    },
    {
      "hasDataForThisLocation": true,
      "locationsWithData": 127,
      "featuredDataPoint": "<span class=\"tooltip-hover data_value--text\">0.75</span>",
      "featuredDataPointRaw": 0.74973,
      "featuredDataPointYear": "2013",
      "rangeLeftLabel": "Worst",
      "rangeRightLabel": "Best",
      "rangeMedianLabel": "Median",
      "leftStat": "0.34",
      "medianStat": "0.64",
      "rightStat": "0.89",
      "medianValuePositionPct": 54.360900897646616,
      "indicatorValuePositionPct": 74.54440370617878,
      "valueComparedToMedian": "better",
      "id": 4,
      "name": "Human Development Index",
      "displayOrder": 4
    },
    {
      "hasDataForThisLocation": true,
      "locationsWithData": 128,
      "featuredDataPoint": "<span class=\"data_symbol--align_top\">$</span><span class=\"tooltip-hover data_value--text\">304</span>",
      "featuredDataPointRaw": 304.14152,
      "featuredDataPointYear": "2013",
      "rangeLeftLabel": "Worst",
      "rangeRightLabel": "Best",
      "rangeMedianLabel": "Median",
      "leftStat": "$17",
      "medianStat": "$351",
      "rightStat": "$2,398",
      "medianValuePositionPct": 14.034639810023924,
      "indicatorValuePositionPct": 12.050753531939955,
      "valueComparedToMedian": "worse",
      "id": 5,
      "name": "Total health expenditure per capita (PPP)",
      "displayOrder": 5
    },
    {
      "hasDataForThisLocation": true,
      "locationsWithData": 103,
      "featuredDataPoint": "<span class=\"tooltip-hover data_value--text\">4</span><span class=\"data_symbol--align_bottom\">%</span>",
      "featuredDataPointRaw": 0.0411,
      "featuredDataPointYear": "2009",
      "rangeLeftLabel": "Worst",
      "rangeRightLabel": "Best",
      "rangeMedianLabel": "Median",
      "leftStat": "88%",
      "medianStat": "14%",
      "rightStat": "0%",
      "medianValuePositionPct": 84.39174552502566,
      "indicatorValuePositionPct": 95.32550450347738,
      "valueComparedToMedian": "better",
      "id": 7,
      "name": "Percent of population living on under $1.25/day",
      "displayOrder": 7
    },
    {
      "hasDataForThisLocation": true,
      "locationsWithData": 15,
      "featuredDataPoint": "<span class=\"tooltip-hover data_value--text\">20.0</span>",
      "featuredDataPointRaw": 20,
      "featuredDataPointYear": "2018",
      "rangeLeftLabel": "Lowest",
      "rangeRightLabel": "Highest",
      "rangeMedianLabel": "Median",
      "leftStat": "7.0",
      "medianStat": "23.0",
      "rightStat": "63.0",
      "medianValuePositionPct": 28.57142857142857,
      "indicatorValuePositionPct": 23.214285714285715,
      "valueComparedToMedian": "neutral",
      "id": 38,
      "name": "Total PHC spending, per capita (USD)",
      "displayOrder": 38
    },
    {
      "hasDataForThisLocation": true,
      "locationsWithData": 15,
      "featuredDataPoint": "<span class=\"tooltip-hover data_value--text\">20.0</span><span class=\"data_symbol--align_bottom\">%</span>",
      "featuredDataPointRaw": 0.2,
      "featuredDataPointYear": "2018",
      "rangeLeftLabel": "Lowest",
      "rangeRightLabel": "Highest",
      "rangeMedianLabel": "Median",
      "leftStat": "20.0%",
      "medianStat": "66.5%",
      "rightStat": "83.0%",
      "medianValuePositionPct": 73.80952380952382,
      "indicatorValuePositionPct": 0,
      "valueComparedToMedian": "neutral",
      "id": 39,
      "name": "Proportion of current health spending allocated to PHC",
      "displayOrder": 39
    },
    {
      "hasDataForThisLocation": true,
      "locationsWithData": 15,
      "featuredDataPoint": "<span class=\"tooltip-hover data_value--text\">3.0</span>",
      "featuredDataPointRaw": 3,
      "featuredDataPointYear": "2018",
      "featuredDataColor": "Green",
      "rangeLeftLabel": "Lowest",
      "rangeRightLabel": "Highest",
      "rangeMedianLabel": "Median",
      "leftStat": "1.0",
      "medianStat": "3.0",
      "rightStat": "42.0",
      "medianValuePositionPct": 4.878048780487805,
      "indicatorValuePositionPct": 4.878048780487805,
      "valueComparedToMedian": "neutral",
      "id": 44,
      "name": "Overview",
      "displayOrder": 43
    },
    {
      "hasDataForThisLocation": true,
      "locationsWithData": 1,
      "featuredDataPoint": "<span class=\"tooltip-hover data_value--text\">32.0</span>",
      "featuredDataPointRaw": 32,
      "featuredDataPointYear": "2018",
      "rangeLeftLabel": "Lowest",
      "rangeRightLabel": "Highest",
      "rangeMedianLabel": "Median",
      "leftStat": "32.0",
      "medianStat": "32.0",
      "rightStat": "32.0",
      "medianValuePositionPct": "NaN",
      "indicatorValuePositionPct": "NaN",
      "valueComparedToMedian": "neutral",
      "id": 49,
      "name": "Prioritization of PHC - Overall Health Spending",
      "displayOrder": 48
    },
    {
      "hasDataForThisLocation": true,
      "locationsWithData": 1,
      "featuredDataPoint": "<span class=\"tooltip-hover data_value--text\">17.0</span>",
      "featuredDataPointRaw": 17,
      "featuredDataPointYear": "2018",
      "rangeLeftLabel": "Lowest",
      "rangeRightLabel": "Highest",
      "rangeMedianLabel": "Median",
      "leftStat": "17.0",
      "medianStat": "17.0",
      "rightStat": "17.0",
      "medianValuePositionPct": "NaN",
      "indicatorValuePositionPct": "NaN",
      "valueComparedToMedian": "neutral",
      "id": 50,
      "name": "Prioritization of PHC - Government Health Spending",
      "displayOrder": 49
    },
    {
      "hasDataForThisLocation": true,
      "locationsWithData": 2,
      "featuredDataPoint": "<span class=\"tooltip-hover data_value--text\">27.0</span>",
      "featuredDataPointRaw": 27,
      "featuredDataPointYear": "2018",
      "rangeLeftLabel": "Lowest",
      "rangeRightLabel": "Highest",
      "rangeMedianLabel": "Median",
      "leftStat": "27.0",
      "medianStat": "27.0",
      "rightStat": "27.0",
      "medianValuePositionPct": "NaN",
      "indicatorValuePositionPct": "NaN",
      "valueComparedToMedian": "neutral",
      "id": 51,
      "name": "Sources of PHC Spending",
      "displayOrder": 50
    },
    {
      "hasDataForThisLocation": true,
      "locationsWithData": 1,
      "featuredDataPoint": "<span class=\"tooltip-hover data_value--text\">3.0</span>",
      "featuredDataPointRaw": 3,
      "featuredDataPointYear": "2018",
      "featuredDataColor": "Green",
      "rangeLeftLabel": "Lowest",
      "rangeRightLabel": "Highest",
      "rangeMedianLabel": "Median",
      "leftStat": "3.0",
      "medianStat": "3.0",
      "rightStat": "3.0",
      "medianValuePositionPct": "NaN",
      "indicatorValuePositionPct": "NaN",
      "valueComparedToMedian": "neutral",
      "id": 60,
      "name": "Financing Overview",
      "displayOrder": 58
    },
    {
      "hasDataForThisLocation": true,
      "locationsWithData": 1,
      "featuredDataPoint": "<span class=\"tooltip-hover data_value--text\">40.0</span>",
      "featuredDataPointRaw": 40,
      "featuredDataPointYear": "2018",
      "rangeLeftLabel": "Lowest",
      "rangeRightLabel": "Highest",
      "rangeMedianLabel": "Median",
      "leftStat": "40.0",
      "medianStat": "40.0",
      "rightStat": "40.0",
      "medianValuePositionPct": "NaN",
      "indicatorValuePositionPct": "NaN",
      "valueComparedToMedian": "neutral",
      "id": 63,
      "name": "Nancys New Test Indicator",
      "displayOrder": 61
    },
    {
      "hasDataForThisLocation": true,
      "locationsWithData": 15,
      "featuredDataPoint": "<span class=\"tooltip-hover data_value--text\">92.0</span>",
      "featuredDataPointRaw": 92,
      "featuredDataPointYear": "2018",
      "featuredDataColor": "Yellow",
      "rangeLeftLabel": "Lowest",
      "rangeRightLabel": "Highest",
      "rangeMedianLabel": "Median",
      "leftStat": "5.0",
      "medianStat": "63.0",
      "rightStat": "92.0",
      "medianValuePositionPct": 66.66666666666666,
      "indicatorValuePositionPct": 100,
      "valueComparedToMedian": "neutral",
      "id": 45,
      "name": "Test Indicator Capacity Modal One",
      "displayOrder": 44
    },
    {
      "hasDataForThisLocation": true,
      "locationsWithData": 15,
      "featuredDataPoint": "<span class=\"tooltip-hover data_value--text\">99.0</span>",
      "featuredDataPointRaw": 99,
      "featuredDataPointYear": "2018",
      "featuredDataColor": "Yellow",
      "rangeLeftLabel": "Lowest",
      "rangeRightLabel": "Highest",
      "rangeMedianLabel": "Median",
      "leftStat": "11.0",
      "medianStat": "41.0",
      "rightStat": "99.0",
      "medianValuePositionPct": 34.090909090909086,
      "indicatorValuePositionPct": 100,
      "valueComparedToMedian": "neutral",
      "id": 46,
      "name": "Test Indicator Capacity Modal 2",
      "displayOrder": 45
    },
    {
      "hasDataForThisLocation": true,
      "locationsWithData": 15,
      "featuredDataPoint": "<span class=\"tooltip-hover data_value--text\">39.0</span>",
      "featuredDataPointRaw": 39,
      "featuredDataPointYear": "2018",
      "featuredDataColor": "Yellow",
      "rangeLeftLabel": "Lowest",
      "rangeRightLabel": "Highest",
      "rangeMedianLabel": "Median",
      "leftStat": "18.0",
      "medianStat": "62.0",
      "rightStat": "97.0",
      "medianValuePositionPct": 55.69620253164557,
      "indicatorValuePositionPct": 26.582278481012654,
      "valueComparedToMedian": "neutral",
      "id": 47,
      "name": "Test Indicator Capacity Modal 3",
      "displayOrder": 46
    },
    {
      "hasDataForThisLocation": true,
      "locationsWithData": 15,
      "featuredDataPoint": "<span class=\"tooltip-hover data_value--text\">3.0</span>",
      "featuredDataPointRaw": 3,
      "featuredDataPointYear": "2018",
      "featuredDataColor": "Green",
      "rangeLeftLabel": "Lowest",
      "rangeRightLabel": "Highest",
      "rangeMedianLabel": "Median",
      "leftStat": "1.0",
      "medianStat": "3.0",
      "rightStat": "4.0",
      "medianValuePositionPct": 66.66666666666666,
      "indicatorValuePositionPct": 66.66666666666666,
      "valueComparedToMedian": "neutral",
      "id": 48,
      "name": "Test Performance Modal One",
      "displayOrder": 47
    },
    {
      "hasDataForThisLocation": false,
      "locationsWithData": 19,
      "rangeLeftLabel": "Worst",
      "rangeRightLabel": "Best",
      "rangeMedianLabel": "Median",
      "leftStat": "5.5%",
      "medianStat": "31.6%",
      "rightStat": "66.5%",
      "medianValuePositionPct": 42.786885245901644,
      "indicatorValuePositionPct": 0,
      "valueComparedToMedian": "neutral",
      "noDataMessage": "No Data",
      "id": 8,
      "name": "Percent of government health spending dedicated to primary health care",
      "displayOrder": 8
    },
    {
      "hasDataForThisLocation": false,
      "locationsWithData": 21,
      "rangeLeftLabel": "Worst",
      "rangeRightLabel": "Best",
      "rangeMedianLabel": "Median",
      "leftStat": "$9.89",
      "medianStat": "$58.67",
      "rightStat": "$261.28",
      "medianValuePositionPct": 19.40411313099169,
      "indicatorValuePositionPct": 0,
      "valueComparedToMedian": "neutral",
      "noDataMessage": "No Data",
      "id": 9,
      "name": "Per capita primary health care expenditure",
      "displayOrder": 9
    },
    {
      "hasDataForThisLocation": false,
      "locationsWithData": 22,
      "rangeLeftLabel": "Lowest",
      "rangeRightLabel": "Highest",
      "rangeMedianLabel": "Median",
      "leftStat": "4.0",
      "medianStat": "23.5",
      "rightStat": "99.0",
      "medianValuePositionPct": 20.526315789473685,
      "indicatorValuePositionPct": 0,
      "valueComparedToMedian": "neutral",
      "noDataMessage": "No Data",
      "id": 33,
      "name": "Per capita primary health care expenditure - Fingerprint",
      "displayOrder": 33
    },
    {
      "hasDataForThisLocation": true,
      "locationsWithData": 15,
      "featuredDataPoint": "<span class=\"tooltip-hover data_value--text\">3.0</span>",
      "featuredDataPointRaw": 3,
      "featuredDataPointYear": "2018",
      "featuredDataColor": "Green",
      "rangeLeftLabel": "Lowest",
      "rangeRightLabel": "Highest",
      "rangeMedianLabel": "Median",
      "leftStat": "1.0",
      "medianStat": "3.0",
      "rightStat": "4.0",
      "medianValuePositionPct": 66.66666666666666,
      "indicatorValuePositionPct": 66.66666666666666,
      "valueComparedToMedian": "neutral",
      "id": 40,
      "name": "Governance",
      "displayOrder": 40
    },
    {
      "hasDataForThisLocation": true,
      "locationsWithData": 1,
      "featuredDataPoint": "<span class=\"tooltip-hover data_value--text\">4.0</span>",
      "featuredDataPointRaw": 4,
      "featuredDataPointYear": "2018",
      "featuredDataColor": "Green",
      "rangeLeftLabel": "Lowest",
      "rangeRightLabel": "Highest",
      "rangeMedianLabel": "Median",
      "leftStat": "4.0",
      "medianStat": "4.0",
      "rightStat": "4.0",
      "medianValuePositionPct": "NaN",
      "indicatorValuePositionPct": "NaN",
      "valueComparedToMedian": "neutral",
      "id": 53,
      "name": "Inputs",
      "displayOrder": 51
    },
    {
      "hasDataForThisLocation": true,
      "locationsWithData": 1,
      "featuredDataPoint": "<span class=\"tooltip-hover data_value--text\">2.0</span>",
      "featuredDataPointRaw": 2,
      "featuredDataPointYear": "2018",
      "featuredDataColor": "Red",
      "rangeLeftLabel": "Lowest",
      "rangeRightLabel": "Highest",
      "rangeMedianLabel": "Median",
      "leftStat": "2.0",
      "medianStat": "2.0",
      "rightStat": "2.0",
      "medianValuePositionPct": "NaN",
      "indicatorValuePositionPct": "NaN",
      "valueComparedToMedian": "neutral",
      "id": 54,
      "name": "Population Health and Facility Management",
      "displayOrder": 52
    },
    {
      "hasDataForThisLocation": true,
      "locationsWithData": 1,
      "featuredDataPoint": "<span class=\"tooltip-hover data_value--text\">1.0</span>",
      "featuredDataPointRaw": 1,
      "featuredDataPointYear": "2018",
      "featuredDataColor": "Red",
      "rangeLeftLabel": "Lowest",
      "rangeRightLabel": "Highest",
      "rangeMedianLabel": "Median",
      "leftStat": "1.0",
      "medianStat": "1.0",
      "rightStat": "1.0",
      "medianValuePositionPct": "NaN",
      "indicatorValuePositionPct": "NaN",
      "valueComparedToMedian": "neutral",
      "id": 61,
      "name": "Capacity Overview",
      "displayOrder": 59
    },
    {
      "hasDataForThisLocation": false,
      "locationsWithData": 15,
      "rangeLeftLabel": "Worst",
      "rangeRightLabel": "Best",
      "rangeMedianLabel": "Median",
      "leftStat": "49.9%",
      "medianStat": "73.2%",
      "rightStat": "89.0%",
      "medianValuePositionPct": 59.59079283887468,
      "indicatorValuePositionPct": 0,
      "valueComparedToMedian": "neutral",
      "noDataMessage": "No Data",
      "id": 10,
      "name": "Availability of basic equipment",
      "displayOrder": 10
    },
    {
      "hasDataForThisLocation": false,
      "locationsWithData": 12,
      "rangeLeftLabel": "Worst",
      "rangeRightLabel": "Best",
      "rangeMedianLabel": "Median",
      "leftStat": "28.0%",
      "medianStat": "40.5%",
      "rightStat": "89.4%",
      "medianValuePositionPct": 20.35830618892508,
      "indicatorValuePositionPct": 0,
      "valueComparedToMedian": "neutral",
      "noDataMessage": "No Data",
      "id": 11,
      "name": "Availability of essential drugs",
      "displayOrder": 11
    },
    {
      "hasDataForThisLocation": false,
      "locationsWithData": 7,
      "rangeLeftLabel": "Worst",
      "rangeRightLabel": "Best",
      "rangeMedianLabel": "Median",
      "leftStat": "8.3%",
      "medianStat": "46.6%",
      "rightStat": "78.8%",
      "medianValuePositionPct": 54.278416347381864,
      "indicatorValuePositionPct": 0,
      "valueComparedToMedian": "neutral",
      "noDataMessage": "No Data",
      "id": 12,
      "name": "Availability of vaccines",
      "displayOrder": 12
    },
    {
      "hasDataForThisLocation": false,
      "locationsWithData": 68,
      "rangeLeftLabel": "Worst",
      "rangeRightLabel": "Best",
      "rangeMedianLabel": "Median",
      "leftStat": "0.1",
      "medianStat": "13.9",
      "rightStat": "223.7",
      "medianValuePositionPct": 6.172315121166055,
      "indicatorValuePositionPct": 0,
      "valueComparedToMedian": "neutral",
      "noDataMessage": "No Data",
      "id": 13,
      "name": "Health center and health post density",
      "displayOrder": 13
    },
    {
      "hasDataForThisLocation": false,
      "locationsWithData": 55,
      "rangeLeftLabel": "Worst",
      "rangeRightLabel": "Best",
      "rangeMedianLabel": "Median",
      "leftStat": "0.1",
      "medianStat": "1.4",
      "rightStat": "10.6",
      "medianValuePositionPct": 12.301587301587302,
      "indicatorValuePositionPct": 0,
      "valueComparedToMedian": "neutral",
      "noDataMessage": "No Data",
      "id": 14,
      "name": "CHW, nurse, and midwife density",
      "displayOrder": 14
    },
    {
      "hasDataForThisLocation": false,
      "locationsWithData": 12,
      "rangeLeftLabel": "Lowest",
      "rangeRightLabel": "Highest",
      "rangeMedianLabel": "Median",
      "leftStat": "3,100.0%",
      "medianStat": "4,500.0%",
      "rightStat": "9,900.0%",
      "medianValuePositionPct": 20.588235294117645,
      "indicatorValuePositionPct": 0,
      "valueComparedToMedian": "neutral",
      "noDataMessage": "No Data",
      "id": 34,
      "name": "Availability of essential drugs - Fingerprint",
      "displayOrder": 34
    },
    {
      "hasDataForThisLocation": true,
      "locationsWithData": 1,
      "featuredDataPoint": "<span class=\"tooltip-hover data_value--text\">2.0</span>",
      "featuredDataPointRaw": 2,
      "featuredDataPointYear": "2018",
      "featuredDataColor": "Yellow",
      "rangeLeftLabel": "Lowest",
      "rangeRightLabel": "Highest",
      "rangeMedianLabel": "Median",
      "leftStat": "2.0",
      "medianStat": "2.0",
      "rightStat": "2.0",
      "medianValuePositionPct": "NaN",
      "indicatorValuePositionPct": "NaN",
      "valueComparedToMedian": "neutral",
      "id": 62,
      "name": "Equity Overview",
      "displayOrder": 60
    },
    {
      "hasDataForThisLocation": false,
      "locationsWithData": 7,
      "rangeLeftLabel": "Worst",
      "rangeRightLabel": "Best",
      "rangeMedianLabel": "Median",
      "leftStat": "43.0%",
      "medianStat": "31.0%",
      "rightStat": "13.5%",
      "medianValuePositionPct": 40.64406779661017,
      "indicatorValuePositionPct": 0,
      "valueComparedToMedian": "neutral",
      "noDataMessage": "No Data",
      "id": 15,
      "name": "Provider absence rate",
      "displayOrder": 15
    },
    {
      "hasDataForThisLocation": false,
      "locationsWithData": 6,
      "rangeLeftLabel": "Worst",
      "rangeRightLabel": "Best",
      "rangeMedianLabel": "Median",
      "leftStat": "31.6%",
      "medianStat": "53.7%",
      "rightStat": "72.5%",
      "medianValuePositionPct": 54.131019310681985,
      "indicatorValuePositionPct": 0,
      "valueComparedToMedian": "neutral",
      "noDataMessage": "No Data",
      "id": 16,
      "name": "Diagnostic accuracy",
      "displayOrder": 16
    },
    {
      "hasDataForThisLocation": false,
      "locationsWithData": 6,
      "rangeLeftLabel": "Lowest",
      "rangeRightLabel": "Highest",
      "rangeMedianLabel": "Median",
      "leftStat": "4.9",
      "medianStat": "10.6",
      "rightStat": "38.1",
      "medianValuePositionPct": 17.10148583415457,
      "indicatorValuePositionPct": 0,
      "valueComparedToMedian": "neutral",
      "noDataMessage": "No Data",
      "id": 17,
      "name": "Caseload per provider (daily)",
      "displayOrder": 17
    },
    {
      "hasDataForThisLocation": false,
      "locationsWithData": 58,
      "rangeLeftLabel": "Worst",
      "rangeRightLabel": "Best",
      "rangeMedianLabel": "Median",
      "leftStat": "86.0%",
      "medianStat": "49.5%",
      "rightStat": "10.5%",
      "medianValuePositionPct": 48.41059602649006,
      "indicatorValuePositionPct": 0,
      "valueComparedToMedian": "neutral",
      "noDataMessage": "No Data",
      "id": 18,
      "name": "Access barriers due to treatment cost",
      "displayOrder": 18
    },
    {
      "hasDataForThisLocation": true,
      "locationsWithData": 132,
      "featuredDataPoint": "<span class=\"tooltip-hover data_value--text\">0.0</span><span class=\"data_symbol--align_bottom\">%</span>",
      "featuredDataPointRaw": 0,
      "featuredDataPointYear": "2014",
      "rangeLeftLabel": "Worst",
      "rangeRightLabel": "Best",
      "rangeMedianLabel": "Median",
      "leftStat": "25.0%",
      "medianStat": "4.0%",
      "rightStat": "0.0%",
      "medianValuePositionPct": 84,
      "indicatorValuePositionPct": 100,
      "valueComparedToMedian": "better",
      "id": 19,
      "name": "Continuity of care: DTP dropout rate",
      "displayOrder": 19
    },
    {
      "hasDataForThisLocation": true,
      "locationsWithData": 119,
      "featuredDataPoint": "<span class=\"tooltip-hover data_value--text\">6.9</span><span class=\"data_symbol--align_bottom\">%</span>",
      "featuredDataPointRaw": 0.069,
      "featuredDataPointYear": "2006",
      "rangeLeftLabel": "Worst",
      "rangeRightLabel": "Best",
      "rangeMedianLabel": "Median",
      "leftStat": "65.5%",
      "medianStat": "19.7%",
      "rightStat": "0.0%",
      "medianValuePositionPct": 69.92366412213741,
      "indicatorValuePositionPct": 89.46564885496183,
      "valueComparedToMedian": "better",
      "id": 20,
      "name": "Continuity of care: ANC dropout rate",
      "displayOrder": 20
    },
    {
      "hasDataForThisLocation": true,
      "locationsWithData": 132,
      "featuredDataPoint": "<span class=\"tooltip-hover data_value--text\">86.0</span><span class=\"data_symbol--align_bottom\">%</span>",
      "featuredDataPointRaw": 0.86,
      "featuredDataPointYear": "2012",
      "rangeLeftLabel": "Worst",
      "rangeRightLabel": "Best",
      "rangeMedianLabel": "Median",
      "leftStat": "31.0%",
      "medianStat": "85.0%",
      "rightStat": "100.0%",
      "medianValuePositionPct": 78.2608695652174,
      "indicatorValuePositionPct": 79.71014492753625,
      "valueComparedToMedian": "better",
      "id": 21,
      "name": "Continuity of care: TB treatment success rate",
      "displayOrder": 21
    },
    {
      "hasDataForThisLocation": true,
      "locationsWithData": 15,
      "featuredDataPoint": "<span class=\"tooltip-hover data_value--text\">44.0</span>",
      "featuredDataPointRaw": 44,
      "featuredDataPointYear": "2018",
      "featuredDataColor": "Red",
      "rangeLeftLabel": "Lowest",
      "rangeRightLabel": "Highest",
      "rangeMedianLabel": "Median",
      "leftStat": "44.0",
      "medianStat": "59.0",
      "rightStat": "75.0",
      "medianValuePositionPct": 48.38709677419355,
      "indicatorValuePositionPct": 0,
      "valueComparedToMedian": "neutral",
      "id": 41,
      "name": "Access Index",
      "displayOrder": 41
    },
    {
      "hasDataForThisLocation": true,
      "locationsWithData": 1,
      "featuredDataPoint": "<span class=\"tooltip-hover data_value--text\">62.0</span>",
      "featuredDataPointRaw": 62,
      "featuredDataPointYear": "2018",
      "featuredDataColor": "Green",
      "rangeLeftLabel": "Lowest",
      "rangeRightLabel": "Highest",
      "rangeMedianLabel": "Median",
      "leftStat": "62.0",
      "medianStat": "62.0",
      "rightStat": "62.0",
      "medianValuePositionPct": "NaN",
      "indicatorValuePositionPct": "NaN",
      "valueComparedToMedian": "neutral",
      "id": 55,
      "name": "Qaulity Index",
      "displayOrder": 53
    },
    {
      "hasDataForThisLocation": true,
      "locationsWithData": 1,
      "featuredDataPoint": "<span class=\"tooltip-hover data_value--text\">54.0</span>",
      "featuredDataPointRaw": 54,
      "featuredDataPointYear": "2018",
      "featuredDataColor": "Yellow",
      "rangeLeftLabel": "Lowest",
      "rangeRightLabel": "Highest",
      "rangeMedianLabel": "Median",
      "leftStat": "54.0",
      "medianStat": "54.0",
      "rightStat": "54.0",
      "medianValuePositionPct": "NaN",
      "indicatorValuePositionPct": "NaN",
      "valueComparedToMedian": "neutral",
      "id": 56,
      "name": "Service Coverage Index",
      "displayOrder": 54
    },
    {
      "hasDataForThisLocation": false,
      "locationsWithData": 93,
      "rangeLeftLabel": "Worst",
      "rangeRightLabel": "Best",
      "rangeMedianLabel": "Median",
      "leftStat": "0.00",
      "medianStat": "0.73",
      "rightStat": "1.00",
      "medianValuePositionPct": 73,
      "indicatorValuePositionPct": 0,
      "valueComparedToMedian": "neutral",
      "noDataMessage": "No Data",
      "id": 22,
      "name": "Coverage Index",
      "displayOrder": 22
    },
    {
      "hasDataForThisLocation": true,
      "locationsWithData": 120,
      "featuredDataPoint": "<span class=\"tooltip-hover data_value--text\">92.5</span><span class=\"data_symbol--align_bottom\">%</span>",
      "featuredDataPointRaw": 0.925,
      "featuredDataPointYear": "2006",
      "rangeLeftLabel": "Worst",
      "rangeRightLabel": "Best",
      "rangeMedianLabel": "Median",
      "leftStat": "6.3%",
      "medianStat": "72.4%",
      "rightStat": "99.7%",
      "medianValuePositionPct": 70.71734475374734,
      "indicatorValuePositionPct": 92.2912205567452,
      "valueComparedToMedian": "better",
      "id": 23,
      "name": "Antenatal care coverage (4+ visits)",
      "displayOrder": 23
    },
    {
      "hasDataForThisLocation": false,
      "locationsWithData": 65,
      "rangeLeftLabel": "Worst",
      "rangeRightLabel": "Best",
      "rangeMedianLabel": "Median",
      "leftStat": "1.5%",
      "medianStat": "22.7%",
      "rightStat": "56.9%",
      "medianValuePositionPct": 38.267148014440444,
      "indicatorValuePositionPct": 0,
      "valueComparedToMedian": "neutral",
      "noDataMessage": "No Data",
      "id": 24,
      "name": "Contraceptive prevalence rate",
      "displayOrder": 24
    },
    {
      "hasDataForThisLocation": true,
      "locationsWithData": 109,
      "featuredDataPoint": "<span class=\"tooltip-hover data_value--text\">67.0</span><span class=\"data_symbol--align_bottom\">%</span>",
      "featuredDataPointRaw": 0.67,
      "featuredDataPointYear": "2007",
      "rangeLeftLabel": "Worst",
      "rangeRightLabel": "Best",
      "rangeMedianLabel": "Median",
      "leftStat": "7.0%",
      "medianStat": "48.0%",
      "rightStat": "77.1%",
      "medianValuePositionPct": 58.48787446504991,
      "indicatorValuePositionPct": 85.59201141226819,
      "valueComparedToMedian": "better",
      "id": 25,
      "name": "Children with diarrhea receiving appropriate treatment",
      "displayOrder": 25
    },
    {
      "hasDataForThisLocation": true,
      "locationsWithData": 132,
      "featuredDataPoint": "<span class=\"tooltip-hover data_value--text\">99.0</span><span class=\"data_symbol--align_bottom\">%</span>",
      "featuredDataPointRaw": 0.99,
      "featuredDataPointYear": "2014",
      "rangeLeftLabel": "Worst",
      "rangeRightLabel": "Best",
      "rangeMedianLabel": "Median",
      "leftStat": "39.0%",
      "medianStat": "91.0%",
      "rightStat": "99.0%",
      "medianValuePositionPct": 86.66666666666667,
      "indicatorValuePositionPct": 100,
      "valueComparedToMedian": "better",
      "id": 26,
      "name": "DTP3 coverage",
      "displayOrder": 26
    },
    {
      "hasDataForThisLocation": true,
      "locationsWithData": 127,
      "featuredDataPoint": "<span class=\"tooltip-hover data_value--text\">98.2</span><span class=\"data_symbol--align_bottom\">%</span>",
      "featuredDataPointRaw": 0.982,
      "featuredDataPointYear": "2006",
      "rangeLeftLabel": "Worst",
      "rangeRightLabel": "Best",
      "rangeMedianLabel": "Median",
      "leftStat": "9.4%",
      "medianStat": "85.1%",
      "rightStat": "100.0%",
      "medianValuePositionPct": 83.5540838852097,
      "indicatorValuePositionPct": 98.01324503311258,
      "valueComparedToMedian": "better",
      "id": 27,
      "name": "Facility-based deliveries",
      "displayOrder": 27
    },
    {
      "hasDataForThisLocation": true,
      "locationsWithData": 128,
      "featuredDataPoint": "<span class=\"tooltip-hover data_value--text\">29</span>",
      "featuredDataPointRaw": 29,
      "featuredDataPointYear": "2013",
      "rangeLeftLabel": "Worst",
      "rangeRightLabel": "Best",
      "rangeMedianLabel": "Median",
      "leftStat": "1,100",
      "medianStat": "125",
      "rightStat": "1",
      "medianValuePositionPct": 88.71701546860783,
      "indicatorValuePositionPct": 97.45222929936305,
      "valueComparedToMedian": "better",
      "id": 28,
      "name": "Maternal mortality ratio",
      "displayOrder": 28
    },
    {
      "hasDataForThisLocation": false,
      "locationsWithData": 0,
      "medianValuePositionPct": 0,
      "indicatorValuePositionPct": 0,
      "id": 35,
      "name": "Maternal Mortality Ratio (alternative)",
      "displayOrder": 29
    },
    {
      "hasDataForThisLocation": true,
      "locationsWithData": 119,
      "featuredDataPoint": "<span class=\"tooltip-hover data_value--text\">18</span><span class=\"data_symbol--align_bottom\">%</span>",
      "featuredDataPointRaw": 0.18,
      "featuredDataPointYear": "2012",
      "rangeLeftLabel": "Worst",
      "rangeRightLabel": "Best",
      "rangeMedianLabel": "Median",
      "leftStat": "41%",
      "medianStat": "20%",
      "rightStat": "11%",
      "medianValuePositionPct": 70,
      "indicatorValuePositionPct": 76.66666666666667,
      "valueComparedToMedian": "better",
      "id": 29,
      "name": "Adult mortality from non-communicable diseases",
      "displayOrder": 30
    },
    {
      "hasDataForThisLocation": true,
      "locationsWithData": 132,
      "featuredDataPoint": "<span class=\"tooltip-hover data_value--text\">10</span>",
      "featuredDataPointRaw": 9.8,
      "featuredDataPointYear": "2015",
      "rangeLeftLabel": "Worst",
      "rangeRightLabel": "Best",
      "rangeMedianLabel": "Median",
      "leftStat": "157",
      "medianStat": "32",
      "rightStat": "5",
      "medianValuePositionPct": 82.10768220617203,
      "indicatorValuePositionPct": 96.58568614576494,
      "valueComparedToMedian": "better",
      "id": 30,
      "name": "Under-five mortality rate",
      "displayOrder": 31
    },
    {
      "hasDataForThisLocation": false,
      "locationsWithData": 31,
      "rangeLeftLabel": "Worst",
      "rangeRightLabel": "Best",
      "rangeMedianLabel": "Median",
      "leftStat": "112",
      "medianStat": "37",
      "rightStat": "-12",
      "medianValuePositionPct": 60.87662337662337,
      "indicatorValuePositionPct": 0,
      "valueComparedToMedian": "neutral",
      "noDataMessage": "No Data",
      "id": 31,
      "name": "Equity: under-five mortality wealth differential",
      "displayOrder": 32
    },
    {
      "hasDataForThisLocation": false,
      "locationsWithData": 21,
      "rangeLeftLabel": "Worst",
      "rangeRightLabel": "Best",
      "rangeMedianLabel": "Median",
      "leftStat": "0.00",
      "medianStat": "0.28",
      "rightStat": "1.00",
      "medianValuePositionPct": 28.000000000000004,
      "indicatorValuePositionPct": 0,
      "valueComparedToMedian": "neutral",
      "noDataMessage": "No Data",
      "id": 32,
      "name": "Efficiency: under-five mortality rate relative to PHC spending (per capita)",
      "displayOrder": 35
    },
    {
      "hasDataForThisLocation": false,
      "locationsWithData": 21,
      "rangeLeftLabel": "Worst",
      "rangeRightLabel": "Best",
      "rangeMedianLabel": "Median",
      "leftStat": "0.00",
      "medianStat": "0.28",
      "rightStat": "1.00",
      "medianValuePositionPct": 28.000000000000004,
      "indicatorValuePositionPct": 0,
      "valueComparedToMedian": "neutral",
      "noDataMessage": "No Data",
      "id": 1000,
      "name": "Proxy Indicator 1",
      "displayOrder": 35
    },
    {
      "hasDataForThisLocation": true,
      "locationsWithData": 21,
      "rangeLeftLabel": "Worst",
      "rangeRightLabel": "Best",
      "rangeMedianLabel": "Median",
      "leftStat": "0.00",
      "medianStat": "0.28",
      "rightStat": "1.00",
      "medianValuePositionPct": 28.000000000000004,
      "indicatorValuePositionPct": 0,
      "valueComparedToMedian": "neutral",
      "noDataMessage": "No Data",
      "id": 1001,
      "name": "Proxy Indicator 2",
      "displayOrder": 35
    },
    {
      "hasDataForThisLocation": true,
      "locationsWithData": 21,
      "rangeLeftLabel": "Worst",
      "rangeRightLabel": "Best",
      "rangeMedianLabel": "Median",
      "leftStat": "0.00",
      "medianStat": "0.28",
      "rightStat": "1.00",
      "medianValuePositionPct": 28.000000000000004,
      "indicatorValuePositionPct": 0,
      "valueComparedToMedian": "neutral",
      "noDataMessage": "No Data",
      "id": 1002,
      "name": "Proxy Indicator 3",
      "displayOrder": 35
    },
    {
      "hasDataForThisLocation": false,
      "locationsWithData": 21,
      "rangeLeftLabel": "Worst",
      "rangeRightLabel": "Best",
      "rangeMedianLabel": "Median",
      "leftStat": "0.00",
      "medianStat": "0.28",
      "rightStat": "1.00",
      "medianValuePositionPct": 28.000000000000004,
      "indicatorValuePositionPct": 0,
      "valueComparedToMedian": "neutral",
      "noDataMessage": "No Data",
      "id": 1003,
      "name": "Proxy Indicator 4",
      "displayOrder": 35
    }
  ],
  "distributedIndicators": [
    {
      "dataPoints": [
        {
          "value": 27,
          "displayValue": "27.0",
          "confidenceInterval": [],
          "color": "Green",
          "characteristics": {
            "quintile": "Lowest"
          }
        },
        {
          "value": 78,
          "displayValue": "78.0",
          "confidenceInterval": [],
          "color": "Green",
          "characteristics": {
            "quintile": "Highest"
          }
        }
      ],
      "hasDataForThisLocation": true,
      "id": 42,
      "name": "Equity Test Indicator",
      "displayOrder": 42
    },
    {
      "dataPoints": [
        {
          "value": 40,
          "displayValue": "40.0",
          "confidenceInterval": [],
          "color": "Red",
          "characteristics": {
            "quintile": "Lowest"
          }
        },
        {
          "value": 62,
          "displayValue": "62.0",
          "confidenceInterval": [],
          "color": "Red",
          "characteristics": {
            "quintile": "Highest"
          }
        }
      ],
      "hasDataForThisLocation": true,
      "id": 57,
      "name": "Access",
      "displayOrder": 55
    },
    {
      "dataPoints": [
        {
          "value": 27,
          "displayValue": "27.0",
          "confidenceInterval": [],
          "color": "Green",
          "characteristics": {
            "quintile": "Lowest"
          }
        },
        {
          "value": 78,
          "displayValue": "78.0",
          "confidenceInterval": [],
          "color": "Green",
          "characteristics": {
            "quintile": "Highest"
          }
        }
      ],
      "hasDataForThisLocation": true,
      "id": 58,
      "name": "Coverage of RMNCH",
      "displayOrder": 56
    },
    {
      "dataPoints": [
        {
          "value": 22,
          "displayValue": "22.0",
          "confidenceInterval": [],
          "color": "Yellow",
          "characteristics": {
            "quintile": "Lowest"
          }
        },
        {
          "value": 62,
          "displayValue": "62.0",
          "confidenceInterval": [],
          "color": "Yellow",
          "characteristics": {
            "quintile": "Highest"
          }
        }
      ],
      "hasDataForThisLocation": true,
      "id": 59,
      "name": "Outcomes",
      "displayOrder": 57
    }
  ],
  "id": 73,
  "name": "Sri Lanka",
  "displayOrder": 5
}