id,name,created,updated,displayOrder,incomeGroup,tags,abbreviation,fips,locationType,parent
1,South Asia,8/28/2015 2:04:46 PM,8/28/2015 2:04:46 PM,1,,,,,Region,
2,Afghanistan,8/28/2015 2:04:46 PM,8/28/2015 2:04:46 PM,1,Low income,,AFG,,Country,South Asia
3,Sub-Saharan Africa,8/28/2015 2:04:46 PM,8/28/2015 2:04:46 PM,2,,,,,Region,
4,Angola,8/28/2015 2:04:46 PM,8/28/2015 2:04:46 PM,1,Upper middle income,,AGO,,Country,Sub-Saharan Africa
5,Europe & Central Asia,8/28/2015 2:04:46 PM,8/28/2015 2:04:46 PM,3,,,,,Region,
6,Albania,8/28/2015 2:04:46 PM,8/28/2015 2:04:46 PM,1,Upper middle income,,ALB,,Country,Europe & Central Asia
7,Armenia,8/28/2015 2:04:46 PM,8/28/2015 2:04:46 PM,2,Lower middle income,,ARM,,Country,Europe & Central Asia
8,East Asia & Pacific,8/28/2015 2:04:46 PM,8/28/2015 2:04:46 PM,4,,,,,Region,
9,American Samoa,8/28/2015 2:04:46 PM,8/28/2015 2:04:46 PM,1,Upper middle income,,ASM,,Country,East Asia & Pacific
10,Azerbaijan,8/28/2015 2:04:46 PM,8/28/2015 2:04:46 PM,3,Upper middle income,,AZE,,Country,Europe & Central Asia
11,Burundi,8/28/2015 2:04:46 PM,8/28/2015 2:04:46 PM,2,Low income,,BDI,,Country,Sub-Saharan Africa
12,Benin,8/28/2015 2:04:46 PM,8/28/2015 2:04:46 PM,3,Low income,,BEN,,Country,Sub-Saharan Africa
13,Burkina Faso,8/28/2015 2:04:46 PM,8/28/2015 2:04:46 PM,4,Low income,,BFA,,Country,Sub-Saharan Africa
14,Bangladesh,8/28/2015 2:04:46 PM,8/28/2015 2:04:46 PM,2,Lower middle income,,BGD,,Country,South Asia
15,Bulgaria,8/28/2015 2:04:46 PM,8/28/2015 2:04:46 PM,4,Upper middle income,,BGR,,Country,Europe & Central Asia
16,Bosnia and Herzegovina,8/28/2015 2:04:46 PM,8/28/2015 2:04:46 PM,5,Upper middle income,,BIH,,Country,Europe & Central Asia
17,Belarus,8/28/2015 2:04:46 PM,8/28/2015 2:04:46 PM,6,Upper middle income,,BLR,,Country,Europe & Central Asia
18,Latin America & Caribbean,8/28/2015 2:04:46 PM,8/28/2015 2:04:46 PM,7,,,,,Region,
19,Belize,8/28/2015 2:04:46 PM,8/28/2015 2:04:46 PM,1,Upper middle income,,BLZ,,Country,Latin America & Caribbean
20,Bolivia,8/28/2015 2:04:46 PM,8/28/2015 2:04:46 PM,2,Lower middle income,,BOL,,Country,Latin America & Caribbean
21,Brazil,8/28/2015 2:04:46 PM,8/28/2015 2:04:46 PM,3,Upper middle income,,BRA,,Country,Latin America & Caribbean
22,Bhutan,8/28/2015 2:04:46 PM,8/28/2015 2:04:46 PM,3,Lower middle income,,BTN,,Country,South Asia
23,Botswana,8/28/2015 2:04:46 PM,8/28/2015 2:04:46 PM,5,Upper middle income,,BWA,,Country,Sub-Saharan Africa
24,Central African Republic,8/28/2015 2:04:46 PM,8/28/2015 2:04:46 PM,6,Low income,,CAF,,Country,Sub-Saharan Africa
25,China,8/28/2015 2:04:46 PM,8/28/2015 2:04:46 PM,2,Upper middle income,,CHN,,Country,East Asia & Pacific
26,Cote d'Ivoire,8/28/2015 2:04:46 PM,8/28/2015 2:04:46 PM,7,Lower middle income,,CIV,,Country,Sub-Saharan Africa
27,Cameroon,8/28/2015 2:04:46 PM,8/28/2015 2:04:46 PM,8,Lower middle income,,CMR,,Country,Sub-Saharan Africa
28,"Congo, Dem. Rep",8/28/2015 2:04:46 PM,8/28/2015 2:04:46 PM,9,Low income,,COD,,Country,Sub-Saharan Africa
29,"Congo, Rep.",8/28/2015 2:04:46 PM,8/28/2015 2:04:46 PM,10,Lower middle income,,COG,,Country,Sub-Saharan Africa
30,Colombia,8/28/2015 2:04:46 PM,8/28/2015 2:04:46 PM,4,Upper middle income,,COL,,Country,Latin America & Caribbean
31,Comoros,8/28/2015 2:04:46 PM,8/28/2015 2:04:46 PM,11,Low income,,COM,,Country,Sub-Saharan Africa
32,Cabo Verde,8/28/2015 2:04:46 PM,8/28/2015 2:04:46 PM,12,Lower middle income,,CPV,,Country,Sub-Saharan Africa
33,Costa Rica,8/28/2015 2:04:46 PM,8/28/2015 2:04:46 PM,5,Upper middle income,,CRI,,Country,Latin America & Caribbean
34,Cuba,8/28/2015 2:04:46 PM,8/28/2015 2:04:46 PM,6,Upper middle income,,CUB,,Country,Latin America & Caribbean
35,Middle East & North Africa,8/28/2015 2:04:46 PM,8/28/2015 2:04:46 PM,13,,,,,Region,
36,Djibouti,8/28/2015 2:04:46 PM,8/28/2015 2:04:46 PM,1,Lower middle income,,DJI,,Country,Middle East & North Africa
37,Dominica,8/28/2015 2:04:46 PM,8/28/2015 2:04:46 PM,7,Upper middle income,,DMA,,Country,Latin America & Caribbean
38,Dominican Republic,8/28/2015 2:04:46 PM,8/28/2015 2:04:46 PM,8,Upper middle income,,DOM,,Country,Latin America & Caribbean
39,Algeria,8/28/2015 2:04:46 PM,8/28/2015 2:04:46 PM,2,Upper middle income,,DZA,,Country,Middle East & North Africa
40,Ecuador,8/28/2015 2:04:46 PM,8/28/2015 2:04:46 PM,9,Upper middle income,,ECU,,Country,Latin America & Caribbean
41,"Egypt, Arab Rep.",8/28/2015 2:04:46 PM,8/28/2015 2:04:46 PM,3,Lower middle income,,EGY,,Country,Middle East & North Africa
42,Eritrea,8/28/2015 2:04:46 PM,8/28/2015 2:04:46 PM,13,Low income,,ERI,,Country,Sub-Saharan Africa
43,Ethiopia,8/28/2015 2:04:46 PM,8/28/2015 2:04:46 PM,14,Low income,,ETH,,Country,Sub-Saharan Africa
44,Fiji,8/28/2015 2:04:46 PM,8/28/2015 2:04:46 PM,3,Upper middle income,,FJI,,Country,East Asia & Pacific
45,"Micronesia, Fed. Sts.",8/28/2015 2:04:46 PM,8/28/2015 2:04:46 PM,4,Lower middle income,,FSM,,Country,East Asia & Pacific
46,Gabon,8/28/2015 2:04:46 PM,8/28/2015 2:04:46 PM,15,Upper middle income,,GAB,,Country,Sub-Saharan Africa
47,Georgia,8/28/2015 2:04:46 PM,8/28/2015 2:04:46 PM,7,Lower middle income,,GEO,,Country,Europe & Central Asia
48,Ghana,8/28/2015 2:04:46 PM,8/28/2015 2:04:46 PM,16,Lower middle income,,GHA,,Country,Sub-Saharan Africa
49,Guinea,8/28/2015 2:04:46 PM,8/28/2015 2:04:46 PM,17,Low income,,GIN,,Country,Sub-Saharan Africa
50,"Gambia, The",8/28/2015 2:04:46 PM,8/28/2015 2:04:46 PM,18,Low income,,GMB,,Country,Sub-Saharan Africa
51,Guinea-Bissau,8/28/2015 2:04:46 PM,8/28/2015 2:04:46 PM,19,Low income,,GNB,,Country,Sub-Saharan Africa
52,Grenada,8/28/2015 2:04:46 PM,8/28/2015 2:04:46 PM,10,Upper middle income,,GRD,,Country,Latin America & Caribbean
53,Guatemala,8/28/2015 2:04:46 PM,8/28/2015 2:04:46 PM,11,Lower middle income,,GTM,,Country,Latin America & Caribbean
54,Guyana,8/28/2015 2:04:46 PM,8/28/2015 2:04:46 PM,12,Lower middle income,,GUY,,Country,Latin America & Caribbean
55,Honduras,8/28/2015 2:04:46 PM,8/28/2015 2:04:46 PM,13,Lower middle income,,HND,,Country,Latin America & Caribbean
56,Haiti,8/28/2015 2:04:46 PM,8/28/2015 2:04:46 PM,14,Low income,,HTI,,Country,Latin America & Caribbean
57,Indonesia,8/28/2015 2:04:46 PM,8/28/2015 2:04:46 PM,5,Lower middle income,,IDN,,Country,East Asia & Pacific
58,India,8/28/2015 2:04:46 PM,8/28/2015 2:04:46 PM,4,Lower middle income,,IND,,Country,South Asia
59,"Iran, Islamic Rep.",8/28/2015 2:04:46 PM,8/28/2015 2:04:46 PM,4,Upper middle income,,IRN,,Country,Middle East & North Africa
60,Iraq,8/28/2015 2:04:46 PM,8/28/2015 2:04:46 PM,5,Upper middle income,,IRQ,,Country,Middle East & North Africa
61,Jamaica,8/28/2015 2:04:46 PM,8/28/2015 2:04:46 PM,15,Upper middle income,,JAM,,Country,Latin America & Caribbean
62,Jordan,8/28/2015 2:04:46 PM,8/28/2015 2:04:46 PM,6,Upper middle income,,JOR,,Country,Middle East & North Africa
63,Kazakhstan,8/28/2015 2:04:46 PM,8/28/2015 2:04:46 PM,8,Upper middle income,,KAZ,,Country,Europe & Central Asia
64,Kenya,8/28/2015 2:04:46 PM,8/28/2015 2:04:46 PM,20,Lower middle income,,KEN,,Country,Sub-Saharan Africa
65,Kyrgyz Republic,8/28/2015 2:04:46 PM,8/28/2015 2:04:46 PM,9,Lower middle income,,KGZ,,Country,Europe & Central Asia
66,Cambodia,8/28/2015 2:04:46 PM,8/28/2015 2:04:46 PM,6,Low income,,KHM,,Country,East Asia & Pacific
67,Kiribati,8/28/2015 2:04:46 PM,8/28/2015 2:04:46 PM,7,Lower middle income,,KIR,,Country,East Asia & Pacific
68,Lao PDR,8/28/2015 2:04:46 PM,8/28/2015 2:04:46 PM,8,Lower middle income,,LAO,,Country,East Asia & Pacific
69,Lebanon,8/28/2015 2:04:46 PM,8/28/2015 2:04:46 PM,7,Upper middle income,,LBN,,Country,Middle East & North Africa
70,Liberia,8/28/2015 2:04:46 PM,8/28/2015 2:04:46 PM,21,Low income,,LBR,,Country,Sub-Saharan Africa
71,Libya,8/28/2015 2:04:46 PM,8/28/2015 2:04:46 PM,8,Upper middle income,,LBY,,Country,Middle East & North Africa
72,St. Lucia,8/28/2015 2:04:46 PM,8/28/2015 2:04:46 PM,16,Upper middle income,,LCA,,Country,Latin America & Caribbean
73,Sri Lanka,8/28/2015 2:04:46 PM,8/28/2015 2:04:46 PM,5,Lower middle income,,LKA,,Country,South Asia
74,Lesotho,8/28/2015 2:04:46 PM,8/28/2015 2:04:46 PM,22,Lower middle income,,LSO,,Country,Sub-Saharan Africa
75,Morocco,8/28/2015 2:04:46 PM,8/28/2015 2:04:46 PM,9,Lower middle income,,MAR,,Country,Middle East & North Africa
76,Moldova,8/28/2015 2:04:46 PM,8/28/2015 2:04:46 PM,10,Lower middle income,,MDA,,Country,Europe & Central Asia
77,Madagascar,8/28/2015 2:04:46 PM,8/28/2015 2:04:46 PM,23,Low income,,MDG,,Country,Sub-Saharan Africa
78,Maldives,8/28/2015 2:04:46 PM,8/28/2015 2:04:46 PM,6,Upper middle income,,MDV,,Country,South Asia
79,Mexico,8/28/2015 2:04:46 PM,8/28/2015 2:04:46 PM,17,Upper middle income,,MEX,,Country,Latin America & Caribbean
80,Marshall Islands,8/28/2015 2:04:46 PM,8/28/2015 2:04:46 PM,9,Upper middle income,,MHL,,Country,East Asia & Pacific
81,"Macedonia, FYR",8/28/2015 2:04:46 PM,8/28/2015 2:04:46 PM,11,Upper middle income,,MKD,,Country,Europe & Central Asia
82,Mali,8/28/2015 2:04:46 PM,8/28/2015 2:04:46 PM,24,Low income,,MLI,,Country,Sub-Saharan Africa
83,Myanmar,8/28/2015 2:04:46 PM,8/28/2015 2:04:46 PM,10,Lower middle income,,MMR,,Country,East Asia & Pacific
84,Montenegro,8/28/2015 2:04:46 PM,8/28/2015 2:04:46 PM,12,Upper middle income,,MNE,,Country,Europe & Central Asia
85,Mongolia,8/28/2015 2:04:46 PM,8/28/2015 2:04:46 PM,11,Upper middle income,,MNG,,Country,East Asia & Pacific
86,Mozambique,8/28/2015 2:04:46 PM,8/28/2015 2:04:46 PM,25,Low income,,MOZ,,Country,Sub-Saharan Africa
87,Mauritania,8/28/2015 2:04:46 PM,8/28/2015 2:04:46 PM,26,Lower middle income,,MRT,,Country,Sub-Saharan Africa
88,Mauritius,8/28/2015 2:04:46 PM,8/28/2015 2:04:46 PM,27,Upper middle income,,MUS,,Country,Sub-Saharan Africa
89,Malawi,8/28/2015 2:04:46 PM,8/28/2015 2:04:46 PM,28,Low income,,MWI,,Country,Sub-Saharan Africa
90,Malaysia,8/28/2015 2:04:46 PM,8/28/2015 2:04:46 PM,12,Upper middle income,,MYS,,Country,East Asia & Pacific
91,Namibia,8/28/2015 2:04:46 PM,8/28/2015 2:04:46 PM,29,Upper middle income,,NAM,,Country,Sub-Saharan Africa
92,Niger,8/28/2015 2:04:46 PM,8/28/2015 2:04:46 PM,30,Low income,,NER,,Country,Sub-Saharan Africa
93,Nigeria,8/28/2015 2:04:46 PM,8/28/2015 2:04:46 PM,31,Lower middle income,,NGA,,Country,Sub-Saharan Africa
94,Nicaragua,8/28/2015 2:04:46 PM,8/28/2015 2:04:46 PM,18,Lower middle income,,NIC,,Country,Latin America & Caribbean
95,Nepal,8/28/2015 2:04:46 PM,8/28/2015 2:04:46 PM,7,Low income,,NPL,,Country,South Asia
96,Pakistan,8/28/2015 2:04:46 PM,8/28/2015 2:04:46 PM,8,Lower middle income,,PAK,,Country,South Asia
97,Panama,8/28/2015 2:04:46 PM,8/28/2015 2:04:46 PM,19,Upper middle income,,PAN,,Country,Latin America & Caribbean
98,Peru,8/28/2015 2:04:46 PM,8/28/2015 2:04:46 PM,20,Upper middle income,,PER,,Country,Latin America & Caribbean
99,Philippines,8/28/2015 2:04:46 PM,8/28/2015 2:04:46 PM,13,Lower middle income,,PHL,,Country,East Asia & Pacific
100,Palau,8/28/2015 2:04:46 PM,8/28/2015 2:04:46 PM,14,Upper middle income,,PLW,,Country,East Asia & Pacific
101,Papua New Guinea,8/28/2015 2:04:46 PM,8/28/2015 2:04:46 PM,15,Lower middle income,,PNG,,Country,East Asia & Pacific
102,"Korea, Dem Rep.",8/28/2015 2:04:46 PM,8/28/2015 2:04:46 PM,16,Lower middle income,,PRK,,Country,East Asia & Pacific
103,Paraguay,8/28/2015 2:04:46 PM,8/28/2015 2:04:46 PM,21,Upper middle income,,PRY,,Country,Latin America & Caribbean
104,West Bank and Gaza,8/28/2015 2:04:46 PM,8/28/2015 2:04:46 PM,10,Lower middle income,,PSE,,Country,Middle East & North Africa
105,Romania,8/28/2015 2:04:46 PM,8/28/2015 2:04:46 PM,13,Upper middle income,,ROU,,Country,Europe & Central Asia
106,Rwanda,8/28/2015 2:04:46 PM,8/28/2015 2:04:46 PM,32,Low income,,RWA,,Country,Sub-Saharan Africa
107,Sudan,8/28/2015 2:04:46 PM,8/28/2015 2:04:46 PM,33,Lower middle income,,SDN,,Country,Sub-Saharan Africa
108,Senegal,8/28/2015 2:04:46 PM,8/28/2015 2:04:46 PM,34,Lower middle income,,SEN,,Country,Sub-Saharan Africa
109,Solomon Islands,8/28/2015 2:04:46 PM,8/28/2015 2:04:46 PM,17,Lower middle income,,SLB,,Country,East Asia & Pacific
110,Sierra Leone,8/28/2015 2:04:46 PM,8/28/2015 2:04:46 PM,35,Low income,,SLE,,Country,Sub-Saharan Africa
111,El Salvador,8/28/2015 2:04:46 PM,8/28/2015 2:04:46 PM,22,Lower middle income,,SLV,,Country,Latin America & Caribbean
112,Somalia,8/28/2015 2:04:46 PM,8/28/2015 2:04:46 PM,36,Low income,,SOM,,Country,Sub-Saharan Africa
113,Serbia,8/28/2015 2:04:46 PM,8/28/2015 2:04:46 PM,14,Upper middle income,,SRB,,Country,Europe & Central Asia
114,South Sudan,8/28/2015 2:04:46 PM,8/28/2015 2:04:46 PM,37,Low income,,SSD,,Country,Sub-Saharan Africa
115,São Tomé and Principe,8/28/2015 2:04:46 PM,8/28/2015 2:04:46 PM,38,Lower middle income,,STP,,Country,Sub-Saharan Africa
116,Suriname,8/28/2015 2:04:46 PM,8/28/2015 2:04:46 PM,23,Upper middle income,,SUR,,Country,Latin America & Caribbean
117,Swaziland,8/28/2015 2:04:46 PM,8/28/2015 2:04:46 PM,39,Lower middle income,,SWZ,,Country,Sub-Saharan Africa
118,Syrian Arab Republic,8/28/2015 2:04:46 PM,8/28/2015 2:04:46 PM,11,Lower middle income,,SYR,,Country,Middle East & North Africa
119,Chad,8/28/2015 2:04:46 PM,8/28/2015 2:04:46 PM,40,Low income,,TCD,,Country,Sub-Saharan Africa
120,Togo,8/28/2015 2:04:46 PM,8/28/2015 2:04:46 PM,41,Low income,,TGO,,Country,Sub-Saharan Africa
121,Thailand,8/28/2015 2:04:46 PM,8/28/2015 2:04:46 PM,18,Upper middle income,,THA,,Country,East Asia & Pacific
122,Tajikistan,8/28/2015 2:04:46 PM,8/28/2015 2:04:46 PM,15,Lower middle income,,TJK,,Country,Europe & Central Asia
123,Turkmenistan,8/28/2015 2:04:46 PM,8/28/2015 2:04:46 PM,16,Upper middle income,,TKM,,Country,Europe & Central Asia
124,Timor-Leste,8/28/2015 2:04:46 PM,8/28/2015 2:04:46 PM,19,Lower middle income,,TLS,,Country,East Asia & Pacific
125,Tonga,8/28/2015 2:04:46 PM,8/28/2015 2:04:46 PM,20,Upper middle income,,TON,,Country,East Asia & Pacific
126,Tunisia,8/28/2015 2:04:46 PM,8/28/2015 2:04:46 PM,12,Upper middle income,,TUN,,Country,Middle East & North Africa
127,Turkey,8/28/2015 2:04:46 PM,8/28/2015 2:04:46 PM,17,Upper middle income,,TUR,,Country,Europe & Central Asia
128,Tuvalu,8/28/2015 2:04:46 PM,8/28/2015 2:04:46 PM,21,Upper middle income,,TUV,,Country,East Asia & Pacific
129,Tanzania,8/28/2015 2:04:46 PM,8/28/2015 2:04:46 PM,42,Low income,,TZA,,Country,Sub-Saharan Africa
130,Uganda,8/28/2015 2:04:46 PM,8/28/2015 2:04:46 PM,43,Low income,,UGA,,Country,Sub-Saharan Africa
131,Ukraine,8/28/2015 2:04:46 PM,8/28/2015 2:04:46 PM,18,Lower middle income,,UKR,,Country,Europe & Central Asia
132,Kosovo,8/28/2015 2:04:46 PM,8/28/2015 2:04:46 PM,19,Lower middle income,,UNK,,Country,Europe & Central Asia
133,Uzbekistan,8/28/2015 2:04:46 PM,8/28/2015 2:04:46 PM,20,Lower middle income,,UZB,,Country,Europe & Central Asia
134,St. Vincent and the Grenadines,8/28/2015 2:04:46 PM,8/28/2015 2:04:46 PM,24,Upper middle income,,VCT,,Country,Latin America & Caribbean
135,Vietnam,8/28/2015 2:04:46 PM,8/28/2015 2:04:46 PM,22,Lower middle income,,VNM,,Country,East Asia & Pacific
136,Vanuatu,8/28/2015 2:04:46 PM,8/28/2015 2:04:46 PM,23,Lower middle income,,VUT,,Country,East Asia & Pacific
137,Samoa,8/28/2015 2:04:46 PM,8/28/2015 2:04:46 PM,24,Lower middle income,,WSM,,Country,East Asia & Pacific
138,"Yemen, Rep.",8/28/2015 2:04:46 PM,8/28/2015 2:04:46 PM,13,Lower middle income,,YEM,,Country,Middle East & North Africa
139,South Africa,8/28/2015 2:04:46 PM,8/28/2015 2:04:46 PM,44,Upper middle income,,ZAF,,Country,Sub-Saharan Africa
140,Zambia,8/28/2015 2:04:46 PM,8/28/2015 2:04:46 PM,45,Lower middle income,,ZMB,,Country,Sub-Saharan Africa
141,Zimbabwe,8/28/2015 2:04:46 PM,8/28/2015 2:04:46 PM,46,Low income,,ZWE,,Country,Sub-Saharan Africa
